<?xml version="1.0" encoding="UTF-8" standalone="no"?>
<svg
   xmlns:dc="http://purl.org/dc/elements/1.1/"
   xmlns:cc="http://creativecommons.org/ns#"
   xmlns:rdf="http://www.w3.org/1999/02/22-rdf-syntax-ns#"
   xmlns:svg="http://www.w3.org/2000/svg"
   xmlns="http://www.w3.org/2000/svg"
   viewBox="0 0 377.94666 34.973331"
   height="34.973331"
   width="377.94666"
   xml:space="preserve"
   id="svg2"
   version="1.1"><metadata
     id="metadata8"><rdf:RDF><cc:Work
         rdf:about=""><dc:format>image/svg+xml</dc:format><dc:type
           rdf:resource="http://purl.org/dc/dcmitype/StillImage" /></cc:Work></rdf:RDF></metadata><defs
     id="defs6" /><g
     transform="matrix(1.3333333,0,0,-1.3333333,0,34.973333)"
     id="g10"><g
       transform="scale(0.1)"
       id="g12"><path
         id="path14"
         style="fill:#165197;fill-opacity:1;fill-rule:nonzero;stroke:none"
         d="M 423.207,258.965 V 154.668 H 136.953 c -9.465,0 -18.816,-2.82 -22.738,-10.008 -2.938,-5.414 -3.719,-10.988 -3.719,-19.883 V 3.39063 L 0,3.39063 V 120.02 c 0,31.191 5.09375,63.808 37.3047,98.046 32.1875,34.239 79.0043,40.899 110.8753,40.899 h 275.027" /><path
         id="path16"
         style="fill:#70c72d;fill-opacity:1;fill-rule:nonzero;stroke:none"
         d="m 441.34,3.39063 c 31.89,0 78.672,6.66017 110.879,40.91797 32.195,34.2266 37.293,66.8514 37.293,98.0464 v 116.61 H 479.016 V 137.598 c 0,-8.899 -0.786,-14.473 -3.723,-19.864 -3.906,-7.226 -13.25,-10.019 -22.734,-10.019 H 166.309 V 3.39063 H 441.34" /><path
         id="path18"
         style="fill:#474a43;fill-opacity:1;fill-rule:nonzero;stroke:none"
         d="m 1541.18,195.898 c 2.31,2.598 6.17,4.016 10.49,4.016 l 214.47,-0.019 v 59.07 h -212.59 c -13.73,0 -41.19,-2.363 -60.42,-22.82 -19.21,-20.43 -20.73,-44.786 -20.73,-58.352 V 84.5781 c 0,-13.5312 1.52,-37.9062 20.73,-58.3554 19.23,-20.44926 46.69,-22.82426 60.42,-22.82426 h 128.74 c 18.87,0 30.36,2.28515 43.54,8.15626 15.78,7.0195 25.85,16.5508 32.45,30.4375 5.19,10.9766 7.66,23.875 7.86,42.5859 v 73.4489 h -149.9 V 105.84 h 82.26 V 80.3711 c 0,-2.8516 -0.29,-7.1875 -1.79,-10.3125 -2.06,-4.1992 -6.72,-6.2109 -14.09,-6.2109 h -130.95 c -4.32,0 -8.18,1.4179 -10.49,4.0156 -2.06,2.3242 -2.79,5.5859 -2.79,9.6172 V 186.289 c 0,4.035 0.73,7.285 2.79,9.609" /><path
         id="path20"
         style="fill:#474a43;fill-opacity:1;fill-rule:nonzero;stroke:none"
         d="m 904.16,63.8477 c -4.305,0 -8.176,1.4179 -10.476,4.0156 -2.051,2.3242 -2.817,5.5859 -2.817,9.6172 V 258.965 H 822.109 V 84.5781 c 0,-13.5312 1.496,-37.9062 20.735,-58.3554 19.219,-20.44926 46.66,-22.82426 60.41,-22.82426 H 1046.31 V 63.8477 H 904.16" /><path
         id="path22"
         style="fill:#474a43;fill-opacity:1;fill-rule:nonzero;stroke:none"
         d="m 2342.08,258.965 h 71.15 V 3.41797 h -71.15 V 258.965" /><path
         id="path24"
         style="fill:#474a43;fill-opacity:1;fill-rule:nonzero;stroke:none"
         d="m 1335.85,77.4805 c 0,-4.0313 -0.72,-7.293 -2.78,-9.6172 -2.31,-2.5977 -6.17,-4.0156 -10.5,-4.0156 h -137.34 c -4.32,0 -8.17,1.4179 -10.49,4.0156 -2.03,2.3242 -2.79,5.5859 -2.79,9.6172 V 186.289 c 0,4.035 0.76,7.285 2.79,9.609 2.32,2.598 6.17,4.016 10.49,4.016 h 137.34 c 4.33,0 8.19,-1.418 10.5,-4.016 2.06,-2.324 2.78,-5.574 2.78,-9.609 z m 45.27,158.6645 c -19.24,20.457 -46.68,22.82 -60.46,22.82 h -133.52 c -13.75,0 -41.22,-2.363 -60.43,-22.82 -19.22,-20.43 -20.72,-44.786 -20.72,-58.352 V 84.5781 c 0,-13.5312 1.5,-37.9062 20.72,-58.3554 19.21,-20.44926 46.68,-22.82426 60.43,-22.82426 h 133.52 c 13.78,0 41.22,2.375 60.46,22.82426 19.22,20.4492 20.72,44.8242 20.72,58.3554 v 93.2149 c 0,13.566 -1.5,37.922 -20.72,58.352" /><path
         id="path26"
         style="fill:#474a43;fill-opacity:1;fill-rule:nonzero;stroke:none"
         d="M 2763.5,259.016 V 83.6914 c 0,-6.1914 0.46,-10.7305 2.56,-17.1758 l -3.3,7.793 h -0.02 L 2648.85,218.625 c -18.4,22.949 -32.39,32.344 -37.51,35.203 -9.88,5.488 -17.83,8.008 -28.21,8.008 -6.87,0 -18.18,-1.152 -25.95,-4.285 -11.82,-4.785 -21.48,-11.106 -27.85,-21.27 -4.83,-7.715 -10.86,-17.843 -10.86,-44.328 V 3.44922 h 71.13 v 0 0 176.01578 c 0,6.18 -0.45,9.316 -2.23,15.945 l 3.19,-8.086 113.68,-144.0701 v 0 0 c 18.41,-22.9805 32.39,-32.375 37.51,-35.20702 C 2751.65,2.51953 2759.62,0 2769.98,0 c 6.86,0 18.2,1.17188 25.97,4.32422 11.8,4.76953 21.46,11.07808 27.83,21.26168 4.84,7.6758 10.87,17.8243 10.87,44.3243 V 259.016 h -71.15" /><path
         id="path28"
         style="fill:#474a43;fill-opacity:1;fill-rule:nonzero;stroke:none"
         d="m 2202.02,258.945 -42.35,-178.2497 -3.78,-16.543 -4.01,16.543 -33.08,119.9807 c -10.15,35.398 -17.98,42.617 -26.77,49.695 -9.59,7.715 -23.52,11.934 -39.32,11.934 v 0 c -15.73,0 -29.72,-4.219 -39.31,-11.934 -8.78,-7.078 -16.59,-14.297 -26.73,-49.695 l -33.11,-119.9807 -3.98,-16.543 -3.8,16.543 -42.33,178.2497 h -68.37 l 45.59,-178.2497 c 5.24,-21.1328 9.75,-33.8281 14.6,-44.3672 5.12,-11.1328 11.37,-19.4023 20.36,-25.664 9.68,-6.69926 17.38,-9.980506 33.55,-9.980506 15.77,0 28.39,4.249996 39.5,13.750006 10.78,9.2187 17.47,22.1875 29.93,65 l 30.78,112.0704 c 1.22,4.641 3.26,12.609 3.26,12.609 h 0.16 c 0,0 2.05,-7.968 3.24,-12.609 l 30.83,-112.0704 c 12.45,-42.8125 19.16,-55.7813 29.9,-65 11.1,-9.50001 23.73,-13.750006 39.5,-13.750006 16.18,0 23.88,3.281246 33.53,9.980506 9.04,6.2617 15.24,14.5312 20.39,25.664 4.85,10.5391 9.36,23.2344 14.59,44.3672 l 45.59,178.2497 h -68.36" /></g></g></svg>